D:\eclipse-workspace\GithubLogin\src\test\java\ObjectSelector\Selector.java
D:\eclipse-workspace\GithubLogin\src\test\java\Cases\TC001.java
D:\eclipse-workspace\GithubLogin\src\test\java\Utility\ReadExcel.java
D:\eclipse-workspace\GithubLogin\src\test\java\Cases\TC002.java
D:\eclipse-workspace\GithubLogin\src\test\java\PageObject\GithubHomePage.java
D:\eclipse-workspace\GithubLogin\src\test\java\Utility\DriverFactory.java
D:\eclipse-workspace\GithubLogin\src\test\java\DataFactory\DataFactory.java
D:\eclipse-workspace\GithubLogin\src\test\java\Utility\WebSupport.java
D:\eclipse-workspace\GithubLogin\src\test\java\PageObject\GithubLogin.java
